{
  "films": [
    {
      "id": 1,
      "fname": "Youth in Revolt",
      "genre": "Animation",
      "studio": "Disney",
      "userrating": "89%",
      "profitability": "2.9% (round to nearest decimal)",
      "rottentomatoesrating": "96%",
      "Worldwidegross": "$521.28",
      "yearremix": "2008"
    },
    {
      "id": 2,
      "fname": "You Will Meet A Tall Dark Stranger",
      "genre": "Animation",
      "studio": "Disney",
      "userrating": "89%",
      "profitability": "2.9% (round to nearest decimal)",
      "rottentomatoesrating": "96%",
      "Worldwidegross": "$521.28",
      "yearremix": "2008"
    },
    {
      "id": 3,
      "fname": "When in Rome",
      "genre": "Animation",
      "studio": "Disney",
      "userrating": "89%",
      "profitability": "2.9% (round to nearest decimal)",
      "rottentomatoesrating": "96%",
      "Worldwidegross": "$521.28",
      "yearremix": "2008"
    },
    {
      "id": 4,
      "fname": "What Happen in Vegas",
      "genre": "Animation",
      "studio": "Disney",
      "userrating": "89%",
      "profitability": "2.9% (round to nearest decimal)",
      "rottentomatoesrating": "96%",
      "Worldwidegross": "$521.28",
      "yearremix": "2008"
    },
    {
      "id": 5,
      "fname": "Water For Elephants",
      "genre": "Animation",
      "studio": "Disney",
      "userrating": "89%",
      "profitability": "2.9% (round to nearest decimal)",
      "rottentomatoesrating": "96%",
      "Worldwidegross": "$521.28",
      "yearremix": "2008"
    },
    {
      "id": 6,
      "fname": "Wall-E",
      "genre": "Animation",
      "studio": "Disney",
      "userrating": "89%",
      "profitability": "2.9% (round to nearest decimal)",
      "rottentomatoesrating": "96%",
      "Worldwidegross": "$521.28",
      "yearremix": "2008"
    },
    {
      "id": 7,
      "fname": "Waitress",
      "genre": "Animation",
      "studio": "Disney",
      "userrating": "89%",
      "profitability": "2.9% (round to nearest decimal)",
      "rottentomatoesrating": "96%",
      "Worldwidegross": "$521.28",
      "yearremix": "2008"
    },
    {
      "fname": "Waiting For Forewer",
      "genre": "Animation",
      "studio": "Disney",
      "userrating": "89%",
      "profitability": "2.9% (round to nearest decimal)",
      "rottentomatoesrating": "96%",
      "Worldwidegross": "$521.28",
      "yearremix": "2008",
      "id": 8
    },
    {
      "fname": "Valentine's studio",
      "genre": "Animation",
      "studio": "Disney",
      "userrating": "89%",
      "profitability": "2.9% (round to nearest decimal)",
      "rottentomatoesrating": "96%",
      "Worldwidegross": "$521.28",
      "yearremix": "2008",
      "id": 9
    },
    {
      "fname": "Tiler Perry's Why Did I Get Married",
      "genre": "Animation",
      "studio": "Disney",
      "userrating": "89%",
      "profitability": "2.9% (round to nearest decimal)",
      "rottentomatoesrating": "96%",
      "Worldwidegross": "$521.28",
      "yearremix": "2008",
      "id": 10
    },
    {
      "fname": "Twilight: Breaking Dawn",
      "genre": "Animation",
      "studio": "Disney",
      "userrating": "89%",
      "profitability": "2.9% (round to nearest decimal)",
      "rottentomatoesrating": "96%",
      "Worldwidegross": "$521.28",
      "yearremix": "2008",
      "id": 11
    },
    {
      "fname": "Twilight",
      "genre": "Animation",
      "studio": "Disney",
      "userrating": "89%",
      "profitability": "2.9% (round to nearest decimal)",
      "rottentomatoesrating": "96%",
      "Worldwidegross": "$521.28",
      "yearremix": "2008",
      "id": 12
    },
    {
      "fname": "The Ugly Truth",
      "genre": "Animation",
      "studio": "Disney",
      "userrating": "89%",
      "profitability": "2.9% (round to nearest decimal)",
      "rottentomatoesrating": "96%",
      "Worldwidegross": "$521.28",
      "yearremix": "2008",
      "id": 13
    },
    {
      "fname": "The Twilight Saga: New Moon",
      "genre": "Animation",
      "studio": "Disney",
      "userrating": "89%",
      "profitability": "2.9% (round to nearest decimal)",
      "rottentomatoesrating": "96%",
      "Worldwidegross": "$521.28",
      "yearremix": "2008",
      "id": 14
    },
    {
      "fname": "The Time Travelers Wife",
      "genre": "Animation",
      "studio": "Disney",
      "userrating": "89%",
      "profitability": "2.9% (round to nearest decimal)",
      "rottentomatoesrating": "96%",
      "Worldwidegross": "$521.28",
      "yearremix": "2008",
      "id": 15
    },
    {
      "fname": "The Proposal",
      "genre": "Animation",
      "studio": "Disney",
      "userrating": "89%",
      "profitability": "2.9% (round to nearest decimal)",
      "rottentomatoesrating": "96%",
      "Worldwidegross": "$521.28",
      "yearremix": "2008",
      "id": 16
    },
    {
      "fname": "The Invention Of Lying",
      "genre": "Animation",
      "studio": "Disney",
      "userrating": "89%",
      "profitability": "2.9% (round to nearest decimal)",
      "rottentomatoesrating": "96%",
      "Worldwidegross": "$521.28",
      "yearremix": "2008",
      "id": 17
    }
  ],
  "comments": [
    {
      "text": "Great Movie.",
      "name": "Sam",
      "parentFilm": 1,
      "id": 1
    },
    {
      "text": "Great Movie.",
      "name": "Annie",
      "parentFilm": 1,
      "id": 2
    },
    {
      "text": "Test done",
      "name": "Ievgen",
      "parentFilm": 1,
      "id": 3
    }
  ]
}